Learning R programing - test_qmd
…
NYC_School_Art <- summarise(Art_in_DOE_buildings,
                      Artist_FirstName,
                      Artist_Lastname,
                      Borough,
                      Medium)

Warning: Returning more (or less) than 1 row per `summarise()` group was deprecated in
dplyr 1.1.0.
ℹ Please use `reframe()` instead.
ℹ When switching from `summarise()` to `reframe()`, remember that `reframe()`
  always returns an ungrouped data frame and adjust accordingly.

NYC_School_Art

# A tibble: 2,273 × 4
   Artist_FirstName Artist_Lastname Borough   Medium           
   <chr>            <chr>           <chr>     <chr>            
 1 COSTANTINO       NIVOLA          MANHATTAN CONCRETE         
 2 COSTANTINO       NIVOLA          MANHATTAN CONCRETE         
 3 COSTANTINO       NIVOLA          MANHATTAN CONCRETE         
 4 OTELLO           GUARDUCCI       MANHATTAN CAST STONE       
 5 JOHN             MATT            MANHATTAN BRONZE           
 6 JACK             HASTINGS        MANHATTAN BRONZE           
 7 WILLIAM          TARR            399       STEEL, WEATHERING
 8 JOHN             TERKEN          BRONX     METAL PAINTED    
 9 GWEN             LUX             MANHATTAN MOSAIC           
10 GWEN             LUX             MANHATTAN GLASS            
# … with 2,263 more rows
